X;Y;Id_chp;Id_PE;Id_bloc;S_PE
1;1;P13_LaMare;P01;B1;84
2;1;P13_LaMare;P02;B3;84
3;1;P13_LaMare;P03;B3;84
4;1;P13_LaMare;P04;B2;84
5;1;P13_LaMare;P05;B3;84
6;1;P13_LaMare;P06;B2;84
7;1;P13_LaMare;P07;B2;84
8;1;P13_LaMare;P08;B1;84
9;1;P13_LaMare;P09;B1;84
10;1;P13_LaMare;P10;B1;84
11;1;P13_LaMare;P11;B1;84
12;1;P13_LaMare;P12;B1;84
1;2;P13_LaMare;P13;B1;84
2;2;P13_LaMare;P14;B3;84
3;2;P13_LaMare;P15;B3;84
4;2;P13_LaMare;P16;B3;84
5;2;P13_LaMare;P17;B3;84
6;2;P13_LaMare;P18;B3;84
7;2;P13_LaMare;P19;B3;84
8;2;P13_LaMare;P20;B2;84
9;2;P13_LaMare;P21;B1;84
10;2;P13_LaMare;P22;B1;84
11;2;P13_LaMare;P23;B1;84
12;2;P13_LaMare;P24;B1;84
1;3;P13_LaMare;P25;B1;84
2;3;P13_LaMare;P26;B2;84
3;3;P13_LaMare;P27;B3;84
4;3;P13_LaMare;P28;B3;84
5;3;P13_LaMare;P29;B3;84
6;3;P13_LaMare;P30;B2;84
7;3;P13_LaMare;P31;B3;84
8;3;P13_LaMare;P32;B2;84
9;3;P13_LaMare;P33;B1;84
10;3;P13_LaMare;P34;B1;84
11;3;P13_LaMare;P35;B1;84
12;3;P13_LaMare;P36;B1;84
1;4;P13_LaMare;P37;B2;84
2;4;P13_LaMare;P38;B2;84
3;4;P13_LaMare;P39;B2;84
4;4;P13_LaMare;P40;B2;84
5;4;P13_LaMare;P41;B3;84
6;4;P13_LaMare;P42;B3;84
7;4;P13_LaMare;P43;B3;84
8;4;P13_LaMare;P44;B3;84
9;4;P13_LaMare;P45;B2;84
10;4;P13_LaMare;P46;B1;84
11;4;P13_LaMare;P47;B1;84
12;4;P13_LaMare;P48;B1;84
1;5;P13_LaMare;P49;B2;84
2;5;P13_LaMare;P50;B1;84
3;5;P13_LaMare;P51;B2;84
4;5;P13_LaMare;P52;B3;84
5;5;P13_LaMare;P53;B3;84
6;5;P13_LaMare;P54;B2;84
7;5;P13_LaMare;P55;B3;84
8;5;P13_LaMare;P56;B2;84
9;5;P13_LaMare;P57;B2;84
10;5;P13_LaMare;P58;B1;84
11;5;P13_LaMare;P59;B1;84
12;5;P13_LaMare;P60;B1;84
1;6;P13_LaMare;P61;B2;84
2;6;P13_LaMare;P62;B3;84
3;6;P13_LaMare;P63;B3;84
4;6;P13_LaMare;P64;B2;84
5;6;P13_LaMare;P65;B2;84
6;6;P13_LaMare;P66;B3;84
7;6;P13_LaMare;P67;B3;84
8;6;P13_LaMare;P68;B1;84
9;6;P13_LaMare;P69;B2;84
10;6;P13_LaMare;P70;B2;84
11;6;P13_LaMare;P71;B2;84
12;6;P13_LaMare;P72;B2;84
1;4;CFPPA;P101;B3;82,5
2;4;CFPPA;P102;B2;82,5
3;4;CFPPA;P103;B2;82,5
4;4;CFPPA;P104;B2;82,5
5;4;CFPPA;P105;B2;82,5
5;3;CFPPA;P106;B2;82,5
4;3;CFPPA;P107;B2;82,5
3;3;CFPPA;P108;B2;82,5
2;3;CFPPA;P109;B2;82,5
1;3;CFPPA;P110;B2;82,5
1;2;CFPPA;P111;B2;82,5
2;2;CFPPA;P112;B2;82,5
3;2;CFPPA;P113;B2;82,5
4;2;CFPPA;P114;B2;82,5
5;2;CFPPA;P115;B2;82,5
5;1;CFPPA;P116;B2;82,5
4;1;CFPPA;P117;B2;82,5
3;1;CFPPA;P118;B2;82,5
2;1;CFPPA;P119;B1;82,5
1;1;CFPPA;P120;B2;82,5
1;7;CFPPA;P121;B1;82,5
2;7;CFPPA;P122;B1;82,5
3;7;CFPPA;P123;B1;82,5
4;7;CFPPA;P124;B1;82,5
4;6;CFPPA;P125;B1;82,5
3;6;CFPPA;P126;B1;82,5
2;6;CFPPA;P127;B1;82,5
1;6;CFPPA;P128;B1;82,5
1;5;CFPPA;P129;B1;82,5
2;5;CFPPA;P130;B1;82,5
3;5;CFPPA;P131;B2;82,5
4;5;CFPPA;P132;B1;82,5
4;4;CFPPA;P133;B1;82,5
3;4;CFPPA;P134;B2;82,5
2;4;CFPPA;P135;B1;82,5
1;4;CFPPA;P136;B1;82,5
1;3;CFPPA;P137;B1;82,5
2;3;CFPPA;P138;B1;82,5
3;3;CFPPA;P139;B1;82,5
4;3;CFPPA;P140;B2;82,5
4;2;CFPPA;P141;B2;82,5
3;2;CFPPA;P142;B2;82,5
2;2;CFPPA;P143;B1;82,5
1;2;CFPPA;P144;B1;82,5
1;1;CFPPA;P145;B1;82,5
2;1;CFPPA;P146;B1;82,5
3;1;CFPPA;P147;B1;82,5
4;1;CFPPA;P148;B2;82,5
1;5;CFPPA;P149;B3;82,5
2;5;CFPPA;P150;B3;82,5
3;5;CFPPA;P151;B3;82,5
4;5;CFPPA;P152;B3;82,5
5;5;CFPPA;P153;B3;82,5
5;4;CFPPA;P154;B3;82,5
4;4;CFPPA;P155;B3;82,5
3;4;CFPPA;P156;B3;82,5
2;4;CFPPA;P157;B3;82,5
1;4;CFPPA;P158;B3;82,5
1;3;CFPPA;P159;B3;82,5
2;3;CFPPA;P160;B3;82,5
3;3;CFPPA;P161;B3;82,5
4;3;CFPPA;P162;B3;82,5
5;3;CFPPA;P163;B3;82,5
5;2;CFPPA;P164;B3;82,5
4;2;CFPPA;P165;B3;82,5
3;2;CFPPA;P166;B3;82,5
2;2;CFPPA;P167;B3;82,5
1;2;CFPPA;P168;B3;82,5
1;1;CFPPA;P169;B3;82,5
2;1;CFPPA;P170;B3;82,5
3;1;CFPPA;P171;B3;82,5
4;1;CFPPA;P172;B1;82,5
1;1;EST;P201;B1;84
1;2;EST;P202;B1;84
1;3;EST;P203;B1;84
1;4;EST;P204;B2;84
1;5;EST;P205;B3;84
1;6;EST;P206;B2;84
2;1;EST;P207;B1;84
2;2;EST;P208;B1;84
2;3;EST;P209;B2;84
2;4;EST;P210;B2;84
2;5;EST;P211;B1;84
2;6;EST;P212;B1;84
3;3;EST;P213;B2;84
3;4;EST;P214;B1;84
3;5;EST;P215;B1;84
3;6;EST;P216;B1;84
1;7;EST;P217;B2;84
1;8;EST;P218;B2;84
1;9;EST;P219;B3;84
1;10;EST;P220;B2;84
1;11;EST;P221;B2;84
1;12;EST;P222;B1;84
1;13;EST;P223;B2;84
1;14;EST;P224;B1;84
1;15;EST;P225;B2;84
1;16;EST;P226;B3;84
1;17;EST;P227;B3;84
2;7;EST;P228;B2;84
2;8;EST;P229;B1;84
2;9;EST;P230;B3;84
2;10;EST;P231;B3;84
2;11;EST;P232;B3;84
2;12;EST;P233;B2;84
2;13;EST;P234;B2;84
2;14;EST;P235;B3;84
2;15;EST;P236;B2;84
2;16;EST;P237;B3;84
2;17;EST;P238;B3;84
3;7;EST;P239;B1;84
3;8;EST;P240;B1;84
3;13;EST;P241;B3;84
3;14;EST;P242;B1;84
3;15;EST;P243;B3;84
3;16;EST;P244;B3;84
3;17;EST;P245;B3;84
4;15;EST;P246;B3;84
4;16;EST;P247;B2;84
4;17;EST;P248;B3;84
1;0;EST;P249;B3;84
1;9;SUD;P301;B1;86
1;8;SUD;P302;B1;87
1;7;SUD;P303;B1;81
1;6;SUD;P304;B1;98
1;5;SUD;P305;B3;82
1;4;SUD;P306;B1;82
1;3;SUD;P307;B2;92
1;2;SUD;P308;B2;88
1;1;SUD;P309;B2;87
2;9;SUD;P310;B2;91
2;8;SUD;P311;B2;86
2;7;SUD;P312;B2;98
2;6;SUD;P313;B1;81
2;5;SUD;P314;B2;84
2;4;SUD;P315;B3;85
2;3;SUD;P316;B3;86
2;2;SUD;P317;B3;83
2;1;SUD;P318;B2;88
3;9;SUD;P319;B1;94
3;8;SUD;P320;B3;90
3;7;SUD;P321;B2;86
3;6;SUD;P322;B1;88
3;5;SUD;P323;B1;93
3;4;SUD;P324;B1;93
3;3;SUD;P325;B3;83
3;2;SUD;P326;B1;86
3;1;SUD;P327;B1;78
4;9;SUD;P328;B1;104
4;8;SUD;P329;B2;89
4;7;SUD;P330;B3;87
4;6;SUD;P331;B3;88
4;5;SUD;P332;B2;102
4;4;SUD;P333;B3;95
4;3;SUD;P334;B3;77
4;2;SUD;P335;B1;94
4;1;SUD;P336;B1;90
5;9;SUD;P337;B2;88
5;8;SUD;P338;B3;79
5;7;SUD;P339;B2;82
5;6;SUD;P340;B3;80
5;5;SUD;P341;B2;93
5;4;SUD;P342;B3;82
5;3;SUD;P343;B3;82
5;2;SUD;P344;B3;93
5;1;SUD;P345;B2;95
